<?xml version="1.0" encoding="UTF-8" standalone="no"?>
<!-- Created with Inkscape (http://www.inkscape.org/) -->

<svg
   width="187.10498mm"
   height="116.46429mm"
   viewBox="0 0 187.10498 116.46429"
   version="1.1"
   id="svg5"
   inkscape:version="1.1 (c68e22c387, 2021-05-23)"
   sodipodi:docname="composition-simple.svg"
   xmlns:inkscape="http://www.inkscape.org/namespaces/inkscape"
   xmlns:sodipodi="http://sodipodi.sourceforge.net/DTD/sodipodi-0.dtd"
   xmlns="http://www.w3.org/2000/svg"
   xmlns:svg="http://www.w3.org/2000/svg">
  <sodipodi:namedview
     id="namedview7"
     pagecolor="#ffffff"
     bordercolor="#666666"
     borderopacity="1.0"
     inkscape:pageshadow="2"
     inkscape:pageopacity="0.0"
     inkscape:pagecheckerboard="0"
     inkscape:document-units="mm"
     showgrid="false"
     fit-margin-top="0"
     fit-margin-left="0"
     fit-margin-right="0"
     fit-margin-bottom="0"
     inkscape:zoom="0.77771465"
     inkscape:cx="268.09319"
     inkscape:cy="-97.079308"
     inkscape:window-width="3840"
     inkscape:window-height="2071"
     inkscape:window-x="3831"
     inkscape:window-y="-9"
     inkscape:window-maximized="1"
     inkscape:current-layer="g858" />
  <defs
     id="defs2" />
  <g
     inkscape:label="Layer 1"
     inkscape:groupmode="layer"
     id="layer1"
     transform="translate(-34.024828,-174.12867)">
    <g
       transform="matrix(0.26458333,0,0,0.26458333,-196.33859,139.42416)"
       id="g858">
      <rect
         x="1066"
         y="263"
         width="178"
         height="72"
         stroke="#172c51"
         stroke-width="1.66667"
         stroke-miterlimit="8"
         fill="#4472c4"
         id="rect824" />
      <text
         fill="#ffffff"
         font-family="Calibri, Calibri_MSFontService, sans-serif"
         font-weight="400"
         font-size="30px"
         transform="translate(1111.43,291)"
         id="text826">Service</text>
      <text
         fill="#ffffff"
         font-family="Calibri, Calibri_MSFontService, sans-serif"
         font-weight="400"
         font-size="30px"
         transform="translate(1123.97,327)"
         id="text828">Offer</text>
      <rect
         x="955"
         y="434"
         width="178"
         height="72"
         stroke="#2b4719"
         stroke-width="1.66667"
         stroke-miterlimit="8"
         fill="#70ad47"
         id="rect830" />
      <text
         fill="#ffffff"
         font-family="Calibri, Calibri_MSFontService, sans-serif"
         font-weight="400"
         font-size="30px"
         transform="translate(987.758,480)"
         id="text832">Resource</text>
      <rect
         x="1399"
         y="263"
         width="178"
         height="72"
         stroke="#64310f"
         stroke-width="1.66667"
         stroke-miterlimit="8"
         fill="#ed7d31"
         id="rect834" />
      <text
         fill="#ffffff"
         font-family="Calibri, Calibri_MSFontService, sans-serif"
         font-weight="400"
         font-size="30px"
         transform="translate(1438.68,309)"
         id="text836">Request</text>
      <rect
         x="1293"
         y="132"
         width="178"
         height="72"
         stroke="#6c4f00"
         stroke-width="1.66667"
         stroke-miterlimit="8"
         fill="#ffc000"
         id="rect838" />
      <text
         fill="#ffffff"
         font-family="Calibri, Calibri_MSFontService, sans-serif"
         font-weight="400"
         font-size="30px"
         transform="translate(1314.25,178)"
         id="text840">Agreement</text>
      <path
         d="m 0,-1.25 h 23.7967 v 127.721 h -2.5 V 0 l 1.25,1.25 H 0 Z m 27.5467,126.054 -5,10 -5,-10 z"
         fill="#4472c4"
         transform="matrix(-1,0,0,1,1067.05,299.5)"
         id="path842" />
      <path
         d="m 0,1.25 h -30.0001 l 1.25,-1.25 v 65.8167 l -1.25,-1.25 H 89.0395 l -1.25,1.25 V 44.15 h 2.5 V 67.0667 H -31.2501 V -1.25 H 0 Z m 84.0395,44.5667 5,-10 5,10 z"
         fill="#4472c4"
         transform="matrix(-1,0,0,1,1244.54,299.5)"
         id="path844" />
      <path
         d="m 1156.5,265.167 v -30 h 332.83 V 263.5"
         stroke="#4472c4"
         stroke-width="2.5"
         stroke-miterlimit="8"
         fill="none"
         fill-rule="evenodd"
         id="path846" />
      <path
         d="m 1383.75,212.833 v 23.069 h -2.5 v -23.069 z m -6.25,1.667 5,-10 5,10 z"
         fill="#4472c4"
         id="path848" />
      <text
         font-family="Calibri, Calibri_MSFontService, sans-serif"
         font-weight="400"
         font-size="30px"
         transform="translate(1202.69,393)"
         id="text850">Aggregation of</text>
      <text
         font-family="Calibri, Calibri_MSFontService, sans-serif"
         font-weight="400"
         font-size="30px"
         transform="translate(869.244,381)"
         id="text852">Composed of</text>
      <path
         d="m 955.5,471.75 h -30 l 1.25,-1.25 v 65.817 l -1.25,-1.25 h 119.04 l -1.25,1.25 V 514.65 h 2.5 v 22.917 H 924.25 V 469.25 h 31.25 z m 84.04,44.567 5,-10 5,10 z"
         fill="#4472c4"
         id="path854" />
      <text
         font-family="Calibri, Calibri_MSFontService, sans-serif"
         font-weight="400"
         font-size="30px"
         transform="translate(983.592,566)"
         id="text856">Aggregation of</text>
    </g>
  </g>
</svg>
